.Xil/Vivado-17204-DESKTOP-5JBVKGD/hw_ila_data_1/zip_work/waveform.vcd
$date
        2022-Aug-19 10:52:40
$end
$version
        Vivado v2021.1 (64-bit)
$end
$timescale
        1ps
$end
$scope module dut $end
$var reg 128 " u_dw_block/u_ddr_read_write/fifo_rd_data [127:0] $end
$var reg 32 D" u_dw_block/u_ddr_read_write/dma_rd_size [31:0] $end
$var reg 2 d" u_dw_block/u_ddr_read_write/rcur_s [1:0] $end
$var reg 2 f" u_dw_block/u_ddr_read_write/cur_s [1:0] $end
$var reg 32 h" u_dw_block/u_ddr_read_write/dma_rd_addr [31:0] $end
$var reg 32 *# u_dw_block/u_ddr_read_write/dma_wr_addr [31:0] $end
$var reg 128 J# u_dw_block/u_ddr_read_write/dma_wr_data [127:0] $end
$var reg 128 l$ u_dw_block/u_ddr_read_write/dma_rd_data [127:0] $end
$var reg 32 0& u_dw_block/u_ddr_read_write/dma_wr_size [31:0] $end
$var reg 2 P& u_dw_block/cur_s [1:0] $end
$var reg 128 R& dma_rd_data [127:0] $end
$var reg 1 t' u_dw_block/u_ddr_read_write/dma_rd_areq $end
$var reg 1 u' u_dw_block/u_ddr_read_write/dma_rd_en $end
$var reg 1 v' u_dw_block/u_ddr_read_write/dma_rd_last $end
$var reg 1 w' u_dw_block/u_ddr_read_write/dma_wr_areq $end
$var reg 1 x' u_dw_block/u_ddr_read_write/dma_wr_en $end
$var reg 1 y' u_dw_block/u_ddr_read_write/dma_wr_last $end
$var reg 1 z' u_dw_block/u_ddr_read_write/merge_wr_rdy $end
$var reg 1 {' _TRIGGER $end
$var reg 1 |' _WINDOW $end
$var reg 1 }' _GAP $end
$upscope $end
$enddefinitions $end
#0
$dumpvars
b0 "
b100 D"
b0 d"
b0 f"
b1001000000000000000000000000 h"
b0 *#
b0 J#
b1001000000010010001000000010000000000000000100000100000000001000000000000000000000000000000010000000000000000000000000000000 l$
b100 0&
b0 P&
b1001000000010010001000000010000000000000000100000100000000001000000000000000000000000000000010000000000000000000000000000000 R&
0t'
0u'
0v'
0w'
0x'
0y'
1z'
0{'
1|'
0}'
$end
#512
b1 f"
b1 P&
1{'
#513
b1 d"
#514
b10 d"
1t'
#515
0t'
#574
b1011100011010001000010000000000001110000101110010000000000000000100110000100100001001 l$
b1011100011010001000010000000000001110000101110010000000000000000100110000100100001001 R&
1u'
#575
b110100001111000101100000000000011001000101010010001100000000000101110001111000010011 l$
b110100001111000101100000000000011001000101010010001100000000000101110001111000010011 R&
#576
b1010000101001000011000000000000011000000011110010000000000000000011110001001100010001 l$
b1010000101001000011000000000000011000000011110010000000000000000011110001001100010001 R&
#577
b100100001001000010010000000000001001000010010000100100000000000010010000100100001001 l$
b100100001001000010010000000000001001000010010000100100000000000010010000100100001001 R&
1v'
#578
b0 d"
b1001000000000000000001000000 h"
b1011100011010001000010000000000001110000101110010000000000000000100110000100100001001 l$
b1011100011010001000010000000000001110000101110010000000000000000100110000100100001001 R&
0u'
0v'
#579
b1 d"
#580
b10 d"
1t'
#581
0t'
#597
b10 f"
b10 P&
#598
b1 f"
b1 P&
#627
b110100010000100010111000011110001011100100000000110110001101100001001000010010001101100011100 l$
b110100010000100010111000011110001011100100000000110110001101100001001000010010001101100011100 R&
1u'
#628
b11110001011000010110000100010001010100100011000110100010001100011110000100110000101100010001 l$
b11110001011000010110000100010001010100100011000110100010001100011110000100110000101100010001 R&
#629
b1010010000110000001001000100100000111100100000000101110010011000010011000100011111100000010101 l$
b1010010000110000001001000100100000111100100000000101110010011000010011000100011111100000010101 R&
#630
b10010000100100001001000010010000100100001001000010010000100100001001000010010000100100001001 l$
b10010000100100001001000010010000100100001001000010010000100100001001000010010000100100001001 R&
1v'
#631
b0 d"
b1001000000000000000010000000 h"
b110100010000100010111000011110001011100100000000110110001101100001001000010010001101100011100 l$
b110100010000100010111000011110001011100100000000110110001101100001001000010010001101100011100 R&
0u'
0v'
#632
b1 d"
#633
b10 d"
1t'
#634
0t'
#650
b10 f"
b10 P&
#651
b1 f"
b1 P&
#681
b101110000111100010000000111100001101100011011000110110001011000011011000111000001011100101000 l$
b101110000111100010000000111100001101100011011000110110001011000011011000111000001011100101000 R&
1u'
#682
b101100001000100010001001011100001101000100011000111000001010100001011000100010001100100100010 l$
b101100001000100010001001011100001101000100011000111000001010100001011000100010001100100100010 R&
#683
b10010001001000001001001010110001011100100110000111000010001111111000000101010001010100011101 l$
b10010001001000001001001010110001011100100110000111000010001111111000000101010001010100011101 R&
#684
b10010000100100001001000010010000100100001001000010010000100100001001000010010000100100001001 l$
b10010000100100001001000010010000100100001001000010010000100100001001000010010000100100001001 R&
1v'
#685
b0 d"
b1001000000000000000011000000 h"
b101110000111100010000000111100001101100011011000110110001011000011011000111000001011100101000 l$
b101110000111100010000000111100001101100011011000110110001011000011011000111000001011100101000 R&
0u'
0v'
#686
b1 d"
#687
b10 d"
1t'
#688
0t'
#704
b10 f"
b10 P&
#705
b1 f"
b1 P&
#735
b100000001111000110100001110110001101100010110000111000010010100010111001010000001100100011000 l$
b100000001111000110100001110110001101100010110000111000010010100010111001010000001100100011000 R&
1u'
#736
b100010010111000101011001111000001110000010101000110000010000000011001001000100001011100101000 l$
b100010010111000101011001111000001110000010101000110000010000000011001001000100001011100101000 R&
#737
b10010010101100011010000111010001110000100011000101010000100100010101000111010001101000001011 l$
b10010010101100011010000111010001110000100011000101010000100100010101000111010001101000001011 R&
#738
b10010000100100001001000010010000100100001001000010010000100100001001000010010000100100001001 l$
b10010000100100001001000010010000100100001001000010010000100100001001000010010000100100001001 R&
1v'
#739
b0 d"
b1001000000000000000100000000 h"
b100000001111000110100001110110001101100010110000111000010010100010111001010000001100100011000 l$
b100000001111000110100001110110001101100010110000111000010010100010111001010000001100100011000 R&
0u'
0v'
#740
b1 d"
#741
b10 d"
1t'
#742
0t'
#758
b10 f"
b10 P&
#759
b1 f"
b1 P&
#789
b1101000011101100111101010000000001110000100101001010110010010000011001000110000010010000010010 l$
b1101000011101100111101010000000001110000100101001010110010010000011001000110000010010000010010 R&
1u'
#790
b1010110011110000110101001011110001100000100000001000010001110100010111001010000010010000010101 l$
b1010110011110000110101001011110001100000100000001000010001110100010111001010000010010000010101 R&
#791
b110100001110100110101001000100001010100001001001001100000111100011010000010110001111100010100 l$
b110100001110100110101001000100001010100001001001001100000111100011010000010110001111100010100 R&
#792
b10010000100100001001000010010000100100001001000010010000100100001001000010010000100100001001 l$
b10010000100100001001000010010000100100001001000010010000100100001001000010010000100100001001 R&
1v'
#793
b0 d"
b1001000000000000000101000000 h"
b1101000011101100111101010000000001110000100101001010110010010000011001000110000010010000010010 l$
b1101000011101100111101010000000001110000100101001010110010010000011001000110000010010000010010 R&
0u'
0v'
#794
b1 d"
#795
b10 d"
1t'
#796
0t'
#812
b10 f"
b10 P&
#813
b1 f"
b1 P&
#843
b1111010100000000111010001011010010101100100100000111000100011000100100000100100001010000010100 l$
b1111010100000000111010001011010010101100100100000111000100011000100100000100100001010000010100 R&
1u'
#844
b1101010010111101000101010000010010000100011101000111100100010000100100000101010000110100101010 l$
b1101010010111101000101010000010010000100011101000111100100010000100100000101010000110100101010 R&
#845
b1101010010001000101001001011110010011000001111000101100010011100011111000101000001000100010110 l$
b1101010010001000101001001011110010011000001111000101100010011100011111000101000001000100010110 R&
#846
b10010000100100001001000010010000100100001001000010010000100100001001000010010000100100001001 l$
b10010000100100001001000010010000100100001001000010010000100100001001000010010000100100001001 R&
1v'
#847
b0 d"
b1001000000000000000110000000 h"
b1111010100000000111010001011010010101100100100000111000100011000100100000100100001010000010100 l$
b1111010100000000111010001011010010101100100100000111000100011000100100000100100001010000010100 R&
0u'
0v'
#848
b1 d"
#849
b10 d"
1t'
#850
0t'
#866
b10 f"
b10 P&
#867
b1 f"
b1 P&
#897
b1110100010110100100111010001010001110001000110010000000010010000010100000101000001010000100100 l$
b1110100010110100100111010001010001110001000110010000000010010000010100000101000001010000100100 R&
1u'
#898
b10001010100000100110110001100100001111001000100001011110011100000001101001010100010010000100000 l$
b10001010100000100110110001100100001111001000100001011110011100000001101001010100010010000100000 R&
#899
b1010010010111100101101001010110001011000100111001010000100110000010001000101100000100100011100 l$
b1010010010111100101101001010110001011000100111001010000100110000010001000101100000100100011100 R&
#900
b10010000100100001001000010010000100100001001000010010000100100001001000010010000100100001001 l$
b10010000100100001001000010010000100100001001000010010000100100001001000010010000100100001001 R&
1v'
#901
b0 d"
b1001000000000000000111000000 h"
b1110100010110100100111010001010001110001000110010000000010010000010100000101000001010000100100 l$
b1110100010110100100111010001010001110001000110010000000010010000010100000101000001010000100100 R&
0u'
0v'
#902
b1 d"
#903
b10 d"
1t'
#904
0t'
#920
b10 f"
b10 P&
#921
b1 f"
b1 P&
#951
b1001110100010101000100001110000100000000100100010010000010011100010100001001000010011100100101 l$
b1001110100010101000100001110000100000000100100010010000010011100010100001001000010011100100101 R&
1u'
#952
b1101100011001000110011001101110010111100111000010001000011000000100100001000000011011000110010 l$
b1101100011001000110011001101110010111100111000010001000011000000100100001000000011011000110010 R&
#953
b1011010010101100100101001001000010100001001100001100100010111000001001000111000010011000101101 l$
b1011010010101100100101001001000010100001001100001100100010111000001001000111000010011000101101 R&
#954
b10010000100100001001000010010000100100001001000010010000100100001001000010010000100100001001 l$
b10010000100100001001000010010000100100001001000010010000100100001001000010010000100100001001 R&
1v'
#955
b0 d"
b1001000000000000001000000000 h"
b1001110100010101000100001110000100000000100100010010000010011100010100001001000010011100100101 l$
b1001110100010101000100001110000100000000100100010010000010011100010100001001000010011100100101 R&
0u'
0v'
#956
b1 d"
#957
b10 d"
1t'
#958
0t'
#974
b10 f"
b10 P&
#975
b1 f"
b1 P&
